------------------ example url--------------------
url : example_url/training/auth/register


---------------------create new user-------------------------

1. Register a New User
POST /training/auth/register
ğŸ“¦ Payload:

json
Copy
Edit
{
  "firstName": "John",
  "lastName": "Doe",
  "email": "john@example.com",
  "password": "12345678",
  "confirmPassword": "12345678"
}
ğŸ“¤ Response:

201: User registered successfully

400: User already exists / Passwords do not match / All fields are required


-----------------------login user-----------------------
2. Login User
POST /training/auth/login
ğŸ“¦ Payload:

json
Copy
Edit
{
  "email": "john@example.com",
  "password": "12345678"
}
ğŸ“¤ Response:

200: { "message": "Login successful", "token": "<jwt>" }

404: User not found

400: Invalid credentials


------------------------forget password-------------------------
3. Forgot Password (Send OTP)
POST /training/auth/forgot-password
ğŸ“¦ Payload:

json
Copy
Edit
{
  "email": "john@example.com"
}
ğŸ“¤ Response:

200: OTP sent to email

404: User not found


-----------------------verify otp----------------------------------
4. Verify OTP
POST /training/auth/verify-otp
ğŸ“¦ Payload:

json
Copy
Edit
{
  "email": "john@example.com",
  "otp": "123456"
}
ğŸ“¤ Response:

200: OTP verified successfully

400: Invalid or expired OTP

404: OTP not requested or expired


--------------------------------resend otp----------------------------
5. Resend OTP
POST /training/auth/resend-otp
ğŸ“¦ Payload:

json
Copy
Edit
{
  "email": "john@example.com"
}
ğŸ“¤ Response:

200: OTP resent successfully

404: User not found


------------------------------reset password---------------------------------
 6. Reset Password
POST /training/auth/reset-password
ğŸ“¦ Payload:

json
Copy
Edit
{
  "email": "john@example.com",
  "newPassword": "newpass123",
  "confirmPassword": "newpass123"
}
ğŸ“¤ Response:

200: Password reset successfully

400: Passwords do not match / All fields are required

404: User not found 



--------------------league managemnt--------------------
--------------------1. Add League-----------------------
Endpoint: POST /training/league/add-league
Description: Add a new league.

âœ… Request Body:
json
Copy
Edit
{
  "name": "Premier League",
  "country": "England"
}
ğŸ”„ Response:
201 Created

json
Copy
Edit
{
  "message": "League added successfully"
}
400 Bad Request

json
Copy
Edit
{
  "message": "All fields are required"
}
500 Server Error

json
Copy
Edit
{
  "message": "Something went wrong"
}
ğŸ”¹------------------- 2. Get Leagues ---------------------
Endpoint: GET /training/league/get-league
Description: Get a paginated list of leagues.

ğŸ” Query Parameters:
page (optional, default: 1)

limit (optional, default: 10)

ğŸ§¾ Example:
Copy
Edit
GET /api/league/get?page=1&limit=10
ğŸ”„ Response:
200 OK

json
Copy
Edit
{
  "message": "Leagues fetched successfully",
  "page": 1,
  "limit": 10,
  "total": 100,
  "totalPages": 10,
  "data": [ 
    {
      "_id": "12345",
      "name": "Premier League",
      "country": "England",
      "createdAt": "...",
      "updatedAt": "..."
    }
  ]
}
500 Server Error

json
Copy
Edit
{
  "message": "Failed to fetch leagues",
  "error": "Detailed error message"
}
--------------------------ğŸ”¹ 3. Edit League-------------------
Endpoint: PUT /training/league/edit-league
Description: Update the details of an existing league.

âœ… Request Body:
json
Copy
Edit
{
  "id": "64f60c83e4a18f0012ce3abc",
  "name": "La Liga",
  "country": "Spain"
}
ğŸ”„ Response:
200 OK

json
Copy
Edit
{
  "message": "League updated successfully"
}
400 Bad Request

json
Copy
Edit
{
  "message": "All fields are required"
}
json
Copy
Edit
{
  "message": "League not found"
}
500 Server Error

json
Copy
Edit
{
  "message": "Something went wrong"
}
----------------------ğŸ”¹ 4. Delete League----------------
Endpoint: DELETE /training/league/delete-league
Description: Delete an existing league.

âœ… Request Body:
json
Copy
Edit
{
  "id": "64f60c83e4a18f0012ce3abc"
}
ğŸ”„ Response:
200 OK

json
Copy
Edit
{
  "message": "League deleted successfully!"
}
400 Bad Request

json
Copy
Edit
{
  "message": "League not found"
}
500 Server Error

json
Copy
Edit
{
  "message": "Server error while deleting league"
}